\babel@toc {french}{}
\contentsline {subsection}{Table des matières}{1}%
\contentsline {section}{\numberline {1}TP1}{2}%
\contentsline {subsection}{\numberline {1.1}Exercice 1}{2}%
\contentsline {subsection}{\numberline {1.2}Exercice 2}{2}%
\contentsline {subsection}{\numberline {1.3}Exercice 3}{3}%
\contentsline {subsection}{\numberline {1.4}Exercice 4}{3}%
\contentsline {subsection}{\numberline {1.5}Exercice 5}{4}%
\contentsline {section}{\numberline {2}TP2}{5}%
\contentsline {subsection}{\numberline {2.1}Procédures et fonctions stockés}{5}%
\contentsline {subsubsection}{\numberline {2.1.1}Question 1}{5}%
\contentsline {subsubsection}{\numberline {2.1.2}Question 2}{5}%
\contentsline {subsubsection}{\numberline {2.1.3}Question 3}{5}%
\contentsline {subsection}{\numberline {2.2}Bloc PL/SQL}{5}%
\contentsline {section}{\numberline {3}TP3}{6}%
\contentsline {subsection}{\numberline {3.1}Package}{6}%
\contentsline {subsection}{\numberline {3.2}Triggers}{6}%
\contentsline {subsubsection}{\numberline {3.2.1}Question 1}{6}%
\contentsline {subsubsection}{\numberline {3.2.2}Question 2}{6}%
\contentsline {subsubsection}{\numberline {3.2.3}Question 3}{6}%
\contentsline {subsubsection}{\numberline {3.2.4}Question 4}{6}%
\contentsline {subsubsection}{\numberline {3.2.5}Question 5}{6}%
\contentsline {subsubsection}{\numberline {3.2.6}Question 6}{6}%
\contentsline {subsubsection}{\numberline {3.2.7}Question 7}{6}%
\contentsline {subparagraph}{A}{6}%
\contentsline {subsubsection}{\numberline {3.2.8}Question 8}{6}%
